…
    ## # A tibble: 280 × 9
    ##    predicted.ce…¹ param…² covar…³ c_lower c_eff…⁴ c_upper  c_pH0  c_FDR count_…⁵
    ##    <chr>          <chr>   <chr>     <dbl>   <dbl>   <dbl>  <dbl>  <dbl> <list>  
    ##  1 B              (Inter… <NA>    -9.85   -1.50     7.29  0.392  0.129  <tibble>
    ##  2 B              aliveT… alive   -0.0272  0.162    0.363 0.649  0.242  <tibble>
    ##  3 B              sample… sample  -0.656  -0.0340   0.501 0.721  0.413  <tibble>
    ##  4 B              sample… sample  -0.319   0.433    1.09  0.263  0.146  <tibble>
    ##  5 B              sample… sample  -0.0379  0.554    1.10  0.117  0.0526 <tibble>
    ##  6 B              sample… sample  -3.65   -1.26     0.379 0.106  0.0352 <tibble>
    ##  7 B              sample… sample  -4.02   -1.90    -0.954 0      0      <tibble>
    ##  8 B              sample… sample  -3.60   -0.591    1.65  0.371  0.128  <tibble>
    ##  9 B              sample… sample  -1.29    1.21     3.69  0.194  0.0774 <tibble>
    ## 10 B              sample… sample  -0.680   2.91     6.83  0.0683 0.0228 <tibble>
    ## # … with 270 more rows, and abbreviated variable names ¹​predicted.celltype.l1,
    ## #   ²​parameter, ³​covariate, ⁴​c_effect, ⁵​count_data
    ## # ℹ Use `print(n = ...)` to see more rows
…
